<?xml version="1.0" encoding="utf-8"?>
<!-- Generator: Adobe Illustrator 23.0.4, SVG Export Plug-In . SVG Version: 6.00 Build 0)  -->
<svg version="1.1" id="Calque_1" xmlns="http://www.w3.org/2000/svg" xmlns:xlink="http://www.w3.org/1999/xlink" x="0px" y="0px"
	 viewBox="0 0 348 114.5" style="enable-background:new 0 0 348 114.5;" xml:space="preserve">
<style type="text/css">
	.st0{fill:#1D1D1B;}
</style>
<g>
	<path class="st0" d="M75.0557,27.501L62.4385,40.0088c0.2109,0.2187,0.3203,0.3281,0.4297,0.4297
		c12.8437,12.8515,12.8437,33.6172,0,46.4531c-12.7266,12.7344-33.5078,12.7344-46.3438,0
		C4.8838,75.1494,4.5557,56.1104,14.1338,43.3838c0.9766-1.1953,3.0469-3.8125,4.1328-4.8984
		c1.4141-1.5235,5.4375-5.5469,6.6328-6.8516c8.2735-8.0469,27.3047-26.875,27.3047-26.875L75.0557,27.501z M125.6416,77.9775
		l44.8281-44.8203v61.6797H80.7119V33.1572L125.6416,77.9775z M241.3916,65.0322c0,18.1719-14.6797,32.8594-32.7422,32.8594
		c-18.164,0-32.8515-14.6875-32.8515-32.8594c0-18.0625,14.6875-32.7422,32.8515-32.7422
		C226.7119,32.29,241.3916,46.9697,241.3916,65.0322z M246.2979,35.5479h32.0937v58.9687h-32.0937V35.5479z M328.4307,88.2041
		c-12.0782,11.1016-31.336,10.7734-42.9766-0.6562l7.3984-6.8516C281.2119,69.1729,281.54,50.8838,293.6182,39.79
		c12.0781-11.0937,31.3281-10.7656,42.9765,0.6485l-7.4062,6.8594C340.8291,58.8291,340.5088,77.1025,328.4307,88.2041z"/>
</g>
</svg>
